{
    "android": {
        "release": {
            "keystore": "battleCity.keystore",
            "storePassword": "",
            "alias": "battleCity",
            "password": "",
            "keystoreType": ""
        }
    }
}